975148265,samantha_djae
179779724,alonzofficiel
217994393,orelsan
398345078,ayanakamura_officiel
3674884397,lciofficiel
6887304,tf1
1547214974,gims
1357163129,jelenaa_officiel
293369336,pierregasly
1962223750,hugoclementk
2348812797,irismittenaeremf
3315877920,carlabruniofficial
814357328,darkocttg
1237439995,kendji
6025661519,zazie.online
44086911858,antothecreatorr
910811823,ninhosdt
248680745,francoiscivilofficiel
555375076,thom_astro
5711543439,cameliiab
26446313,yslbeauty
450284584,larocheposay
10855018,urbandecaycosmetics
1652548021,lancomeofficial
18085004,dieselfragrances
3595825505,armanibeauty
6430051937,cacharelparfums
9460276,nyxcosmetics
7377838237,mixafr
192301204,maybelline
1594347370,dopfrance
9451337,franckprovostparis
38967951360,cadumfrance
195188729,jeanlouisdavidfr
5532405789,garnier
315768702,alix_dmx
50688254814,estelle_midi
1989619595,rmc_off
199173561,ellefr
238440876,cacharel
511172118,jarrytypique
4552288439,nathanya.sonia
2215968335,anouhenchoz
252002114,alexandra_roost
36149004,ermannobarnaba
12262089707,yourflowers.fr
7721562272,aishwaryaraibachchan_arb
5848631718,elaine_zhongchuxi
970032701,bebe_vio
355790822,thelumagrothe
346537123,yseult
9934050,dutchesss_
260991768,lenamahfouf
1478741887,sch
27243106,6pri1
227497518,seblafrite
8630260,natoogram
13940106075,inshapenutrition
2261389225,sfr.officiel
298594028,gadelmaleh
288328427,speana20
310837071,jessicaerrero_official
240181984,stephaniedurant
1251914752,meldedigama
5980841484,henni_mohamed_off
3733597645,sarahlopezoff
8012543502,benoitst_denis
378827135,cedricdoumbe
1010433640,salahdineparnasse
4266817494,inkorrect
2930973044,bbryance
7991959685,jylorbeauty
6034127667,bianochy
32640219725,pierregarniermusique
182046540,jeanmichelmaire
244948681,fidji_ruiz
233118063,leamary
11114100576,yael.braunpivet
1698021196,bernardhenrilevy
1482305248,patrickbruel
1412007771,zidane
623518851,guira22
1550904879,jdoreofficiel
1369765470,julienbert42
671139752,carolinereceveur
658035256,sylvietellier
335384232,lenoutsa
8541963,camillecombal
349135704,tof_beaugrand
246754774,anaisquadratus
269121430,elsadasc
1243414630,elsabois
244520920,sandrea26france
458506184,noholit_o
1649886011,leilabenkhalifaofficial
565339156,lorealpro
2271001831,lorealgroupe
3408300469,opticalcenter_
302152920,natashastpier
1613007883,davidyrodriguez
181712705,enjoyphoenix
233046497,silentjill
212945208,meganvlt
183177051,dianeperreau
3171067,noholita
5350394,berengerekrief
419654116,tarantinoxx
12930080,aurelievandaelen
378950537,evalongoria
1109509810,antoinegoretti
508839693,kevadams
4082492963,enricofficiel
497769548,franckgastambide
50074753319,intelfrance
299490091,hp
1316098744,papajohns
378671112,dominos
176059231,dominospizza_france
778728965,burgerkingfr
222106572,magnum
249655166,cocacola
2550116901,cocacolafr
2836949217,healthandbeautydeadsea
629050944,ahava
3443539605,esteelaudercompanies
14293571,esteelauder
1323766664,lorealparis
179444312,porrovecchiocoralie
51947503625,gp_explorer
1282864537,niska_officiel
243542277,naomi
27723940,levraimotif
1540792116,angele_vl
470103075,shayizi
500928888,anthonyalcaraz
1580282118,anthonymateo_off
2126530742,divarebeccaofficiel
1280902737,madameforesti
4767681314,ericpointjudor
26796984,franceinter
55975917532,oceanfestofficiel
56057158681,vakitamedia
2543458985,manupayet
26428409,jeanmarcmorandini
1544122506,inspi.by.loan
2605096205,isabelleadjaniofficiel
51330124955,romaingavras
17789355,jr
1983653419,eliesemounofficiel
8228295945,michelboujenah_officiel
10620259002,darmon.gerard
582290984,lea.haddad
6856164862,nickycosmeticsparis
4100743,levraimcfly
943368,rafcarlito
732510392,cedricgrolet
244686507,mathildtantot
1465498596,leaelui
195734327,davidguetta
253982730,equipedefrance
1705191588,golfarahani
2048817133,davidmichigan
29716451,tchalamet
1412753185,raphaelvarane
39032263093,isabeau.delatour
36469200,bastoswithlove
6760427,jeremstar
610869163,jesta_hillmann
1794298267,daniellapintto
2023172130,melaniedvcruz
414115725,vivian_officiel
4278394985,maissane.agl
2117820308,rym.renom
1266519622,vincentqueijo
288241087,raphoupeps
1006881457,nazaofficiel
241925115,sananas2106
196327660,sasabylopez
511713783,cassandrajulliaoff
217246833,wevents.wesley
7713659514,michou
56958619821,michouoff
7129711332,inoxtag
4387134308,pascalpraud
27621333384,raphaelglucksmann_english
18071419,mouloudachour
1986578913,fdubosc_officiel
3445586261,tomersisley
2309884796,meh_boulaa
4830428482,pinupsecretparis
6180005521,thomas.sotto
7449214781,yousra.lkh
178542504,dadju
2280347757,juldetp
3473138825,lepointfr
228212413,c8lachaine
187728200,sopranopsy4
10082347,elisegoldfarb
348964181,radiofrance
508114682,vegedream
270739417,kaarisofficiel1
8330644647,muscintime
1069521361,cnews
8765964076,nabillabeauty
65296322323,seyaka.fr
3288715792,mariesinfiltre
1049139485,camillelellouche
15026594776,poupeettte
25513185,amelbent
362236892,joannsfar
176222948,cauetofficiel
1236452106,zyram1
1499891863,carrefourfrance
374788523,iam_evaqueen
263110431,antogriezmann
448698638,pierreniney
190286863,paulmirabel
708790,amir.h
594081073,nabilla
1720728202,jameldebbouze
1688043794,heuss_lenfoire
1485438938,jujufitcats
1319033561,tiboinshape
50517210485,vteptf1
24845589,mattpokora
223717911,kevinguedj
2237201282,carlamoreau_____
8736640877,greg_yega
43250659,adixia
29225303648,victoria_mehault
543348457,julientantiplein
3218931168,giuseppacrl
389412825,nikolalozina
206851755,jessicathivenin
264159192,manontanti
263500569,hilonagos_off
603075942,thibaultgarcia
4213518589,k.mbappe
300425749,paga_lmsa
645220040,benji_samat
2320561858,vianneymusique
15063280265,verdez.gilles
1604095959,tpmptv
7689288472,raphaelglucksmann
43485249,arthur_officiel
1528165922,itsleana____
25745341,maddyburciaga
2072805588,julia_paredes_off
1398007802,feli_ccia
53452738,martika11
1913006276,amelieofficieloff
8641876814,agenceweevents
17815971286,pumafrance
10145706,puma
