<?xml version="1.0" standalone="no"?>
<!DOCTYPE svg PUBLIC "-//W3C//DTD SVG 20010904//EN"
 "http://www.w3.org/TR/2001/REC-SVG-20010904/DTD/svg10.dtd">
<svg version="1.0" xmlns="http://www.w3.org/2000/svg"
 width="623.000000pt" height="623.000000pt" viewBox="0 0 623.000000 623.000000"
 preserveAspectRatio="xMidYMid meet">
<metadata>
Created by potrace 1.14, written by Peter Selinger 2001-2017
</metadata>
<g transform="translate(0.000000,623.000000) scale(0.100000,-0.100000)"
fill="#000000" stroke="none">
<path d="M794 4221 c-49 -22 -78 -52 -106 -105 -20 -39 -20 -55 -21 -1105 0
-979 1 -1069 17 -1106 21 -49 40 -70 91 -104 l40 -26 2315 0 2315 0 40 22 c47
25 76 54 101 103 17 33 18 92 18 1101 l0 1065 -27 55 c-28 57 -70 93 -128 109
-21 6 -869 10 -2324 10 -2213 0 -2291 -1 -2331 -19z"/>
</g>
</svg>
